{
    "Failure4102": {
        "Code": 4102,
        "Message": "Access token expired"
    },
    "Failure500": {
        "Code": 5000,
        "Message": "An unexpected error occurred. Please contact administrator"
    },
    "https://api.flickr.com/services/rest/?method=flickr.photos.search": {
        "stat": "ok", "photos": {
            "page" : 1,
            "pages" : 41998,
            "perpage" : 30,
            "total": "1259929",
            "photo" : [
                         {
                         "farm" : 1,
                         "id" : "42183419440",
                         "isfamily" : 0,
                         "isfriend" : 0,
                         "ispublic" : 1,
                         "owner" : "46760368@N02",
                         "secret" : "2656ed48a8",
                         "server" : 942,
                         "title" : "Rose in Rain"
                         },
                         {
                         "farm" : 2,
                         "id" : "43944110912",
                         "isfamily" : 0,
                         "isfriend" : 0,
                         "ispublic" : 1,
                         "owner" : "46760368@N02",
                         "secret" : "263b8b3119",
                         "server" : 1774,
                         "title" : "Rose in Rain"
                         },
                         {
                         "farm" : 1,
                         "id" : "43944096542",
                         "isfamily" : 0,
                         "isfriend" : 0,
                         "ispublic" : 1,
                         "owner" : "124598500@N07",
                         "secret" : "302760986e",
                         "server" : 934,
                         "title" : "Rose"
                         },
                         {
                         "farm" : 2,
                         "id" : "43086804405",
                         "isfamily" : 0,
                         "isfriend" : 0,
                         "ispublic" : 1,
                         "owner" : "152464570@N04",
                         "secret" : "fe2d115501",
                         "server" : 1777,
                         "title" : "A rose in sunshine"
                         },
                         {
                         "farm" : 2,
                         "id" : "43086788645",
                         "isfamily" : 0,
                         "isfriend" : 0,
                         "ispublic" : 1,
                         "owner" : "146492872@N02",
                         "secret" : "12e0a95234",
                         "server" : 1774,
                         "title" : "Dandelion.. Just like any rose.."
                         }
                       ]
                }
                         
    }
}
